%YAML 1.1
%TAG !u! tag:unity3d.com,2011:
--- !u!1 &1592617406871761339
GameObject:
  m_ObjectHideFlags: 0
  m_CorrespondingSourceObject: {fileID: 0}
  m_PrefabInstance: {fileID: 0}
  m_PrefabAsset: {fileID: 0}
  serializedVersion: 6
  m_Component:
  - component: {fileID: 2242582055055826822}
  - component: {fileID: 7194176528461615017}
  m_Layer: 0
  m_Name: 3_BANANA
  m_TagString: Untagged
  m_Icon: {fileID: 0}
  m_NavMeshLayer: 0
  m_StaticEditorFlags: 0
  m_IsActive: 1
--- !u!4 &2242582055055826822
Transform:
  m_ObjectHideFlags: 0
  m_CorrespondingSourceObject: {fileID: 0}
  m_PrefabInstance: {fileID: 0}
  m_PrefabAsset: {fileID: 0}
  m_GameObject: {fileID: 1592617406871761339}
  m_LocalRotation: {x: 0, y: 0, z: 0, w: 1}
  m_LocalPosition: {x: 0, y: 0, z: 0}
  m_LocalScale: {x: 1, y: 1, z: 1}
  m_ConstrainProportionsScale: 0
  m_Children:
  - {fileID: 936196928356599718}
  m_Father: {fileID: 0}
  m_RootOrder: 0
  m_LocalEulerAnglesHint: {x: 0, y: 0, z: 0}
--- !u!114 &7194176528461615017
MonoBehaviour:
  m_ObjectHideFlags: 0
  m_CorrespondingSourceObject: {fileID: 0}
  m_PrefabInstance: {fileID: 0}
  m_PrefabAsset: {fileID: 0}
  m_GameObject: {fileID: 1592617406871761339}
  m_Enabled: 1
  m_EditorHideFlags: 0
  m_Script: {fileID: 11500000, guid: b164db04aebb4389ba73b0bea1177bf5, type: 3}
  m_Name: 
  m_EditorClassIdentifier: 
  bananaFX: {fileID: 11400000, guid: d465170f376927842a1f173fc0a3e347, type: 2}
--- !u!1001 &8489207185172859916
PrefabInstance:
  m_ObjectHideFlags: 0
  serializedVersion: 2
  m_Modification:
    serializedVersion: 2
    m_TransformParent: {fileID: 2242582055055826822}
    m_Modifications:
    - target: {fileID: 8249013956373221648, guid: 413cd314729015e448d4909c67fc7596,
        type: 3}
      propertyPath: m_Name
      value: Banana
      objectReference: {fileID: 0}
    - target: {fileID: 8249013956373221648, guid: 413cd314729015e448d4909c67fc7596,
        type: 3}
      propertyPath: m_IsActive
      value: 1
      objectReference: {fileID: 0}
    - target: {fileID: 8732957760522406826, guid: 413cd314729015e448d4909c67fc7596,
        type: 3}
      propertyPath: m_RootOrder
      value: 6
      objectReference: {fileID: 0}
    - target: {fileID: 8732957760522406826, guid: 413cd314729015e448d4909c67fc7596,
        type: 3}
      propertyPath: m_LocalScale.x
      value: 1.327658
      objectReference: {fileID: 0}
    - target: {fileID: 8732957760522406826, guid: 413cd314729015e448d4909c67fc7596,
        type: 3}
      propertyPath: m_LocalScale.y
      value: 1.327658
      objectReference: {fileID: 0}
    - target: {fileID: 8732957760522406826, guid: 413cd314729015e448d4909c67fc7596,
        type: 3}
      propertyPath: m_LocalScale.z
      value: 1.327658
      objectReference: {fileID: 0}
    - target: {fileID: 8732957760522406826, guid: 413cd314729015e448d4909c67fc7596,
        type: 3}
      propertyPath: m_LocalPosition.x
      value: -0
      objectReference: {fileID: 0}
    - target: {fileID: 8732957760522406826, guid: 413cd314729015e448d4909c67fc7596,
        type: 3}
      propertyPath: m_LocalPosition.y
      value: 0.661
      objectReference: {fileID: 0}
    - target: {fileID: 8732957760522406826, guid: 413cd314729015e448d4909c67fc7596,
        type: 3}
      propertyPath: m_LocalPosition.z
      value: 0.162
      objectReference: {fileID: 0}
    - target: {fileID: 8732957760522406826, guid: 413cd314729015e448d4909c67fc7596,
        type: 3}
      propertyPath: m_LocalRotation.w
      value: 0.050816596
      objectReference: {fileID: 0}
    - target: {fileID: 8732957760522406826, guid: 413cd314729015e448d4909c67fc7596,
        type: 3}
      propertyPath: m_LocalRotation.x
      value: 0.8026984
      objectReference: {fileID: 0}
    - target: {fileID: 8732957760522406826, guid: 413cd314729015e448d4909c67fc7596,
        type: 3}
      propertyPath: m_LocalRotation.y
      value: 0.07389839
      objectReference: {fileID: 0}
    - target: {fileID: 8732957760522406826, guid: 413cd314729015e448d4909c67fc7596,
        type: 3}
      propertyPath: m_LocalRotation.z
      value: 0.5896032
      objectReference: {fileID: 0}
    - target: {fileID: 8732957760522406826, guid: 413cd314729015e448d4909c67fc7596,
        type: 3}
      propertyPath: m_LocalEulerAnglesHint.x
      value: -0.319
      objectReference: {fileID: 0}
    - target: {fileID: 8732957760522406826, guid: 413cd314729015e448d4909c67fc7596,
        type: 3}
      propertyPath: m_LocalEulerAnglesHint.y
      value: -252.568
      objectReference: {fileID: 0}
    - target: {fileID: 8732957760522406826, guid: 413cd314729015e448d4909c67fc7596,
        type: 3}
      propertyPath: m_LocalEulerAnglesHint.z
      value: -190.286
      objectReference: {fileID: 0}
    m_RemovedComponents: []
    m_AddedGameObjects: []
  m_SourcePrefab: {fileID: 100100000, guid: 413cd314729015e448d4909c67fc7596, type: 3}
--- !u!4 &936196928356599718 stripped
Transform:
  m_CorrespondingSourceObject: {fileID: 8732957760522406826, guid: 413cd314729015e448d4909c67fc7596,
    type: 3}
  m_PrefabInstance: {fileID: 8489207185172859916}
  m_PrefabAsset: {fileID: 0}
