%YAML 1.1
%TAG !u! tag:unity3d.com,2011:
--- !u!1 &1592617406871761339
GameObject:
  m_ObjectHideFlags: 0
  m_CorrespondingSourceObject: {fileID: 0}
  m_PrefabInstance: {fileID: 0}
  m_PrefabAsset: {fileID: 0}
  serializedVersion: 6
  m_Component:
  - component: {fileID: 2242582055055826822}
  - component: {fileID: 1498543065308771961}
  m_Layer: 0
  m_Name: 4_CROWN
  m_TagString: Untagged
  m_Icon: {fileID: 0}
  m_NavMeshLayer: 0
  m_StaticEditorFlags: 0
  m_IsActive: 1
--- !u!4 &2242582055055826822
Transform:
  m_ObjectHideFlags: 0
  m_CorrespondingSourceObject: {fileID: 0}
  m_PrefabInstance: {fileID: 0}
  m_PrefabAsset: {fileID: 0}
  m_GameObject: {fileID: 1592617406871761339}
  m_LocalRotation: {x: 0, y: 0, z: 0, w: 1}
  m_LocalPosition: {x: 0, y: 0, z: 0}
  m_LocalScale: {x: 1, y: 1, z: 1}
  m_ConstrainProportionsScale: 0
  m_Children:
  - {fileID: 8240166329326664322}
  m_Father: {fileID: 0}
  m_RootOrder: 0
  m_LocalEulerAnglesHint: {x: 0, y: 0, z: 0}
--- !u!114 &1498543065308771961
MonoBehaviour:
  m_ObjectHideFlags: 0
  m_CorrespondingSourceObject: {fileID: 0}
  m_PrefabInstance: {fileID: 0}
  m_PrefabAsset: {fileID: 0}
  m_GameObject: {fileID: 1592617406871761339}
  m_Enabled: 1
  m_EditorHideFlags: 0
  m_Script: {fileID: 11500000, guid: 2f7b677265794db68fca5ec663a582cf, type: 3}
  m_Name: 
  m_EditorClassIdentifier: 
--- !u!1001 &5594145237231076354
PrefabInstance:
  m_ObjectHideFlags: 0
  serializedVersion: 2
  m_Modification:
    serializedVersion: 2
    m_TransformParent: {fileID: 2242582055055826822}
    m_Modifications:
    - target: {fileID: 3797456179816047674, guid: 045dd3609fe10d94d849631d1ccc062d,
        type: 3}
      propertyPath: m_Name
      value: Crown Prefab
      objectReference: {fileID: 0}
    - target: {fileID: 4609600150426123904, guid: 045dd3609fe10d94d849631d1ccc062d,
        type: 3}
      propertyPath: m_RootOrder
      value: -1
      objectReference: {fileID: 0}
    - target: {fileID: 4609600150426123904, guid: 045dd3609fe10d94d849631d1ccc062d,
        type: 3}
      propertyPath: m_LocalScale.x
      value: 1.2212667
      objectReference: {fileID: 0}
    - target: {fileID: 4609600150426123904, guid: 045dd3609fe10d94d849631d1ccc062d,
        type: 3}
      propertyPath: m_LocalScale.y
      value: 1.2212667
      objectReference: {fileID: 0}
    - target: {fileID: 4609600150426123904, guid: 045dd3609fe10d94d849631d1ccc062d,
        type: 3}
      propertyPath: m_LocalScale.z
      value: 1.2212667
      objectReference: {fileID: 0}
    - target: {fileID: 4609600150426123904, guid: 045dd3609fe10d94d849631d1ccc062d,
        type: 3}
      propertyPath: m_LocalPosition.x
      value: -0.0032
      objectReference: {fileID: 0}
    - target: {fileID: 4609600150426123904, guid: 045dd3609fe10d94d849631d1ccc062d,
        type: 3}
      propertyPath: m_LocalPosition.y
      value: -0.0573
      objectReference: {fileID: 0}
    - target: {fileID: 4609600150426123904, guid: 045dd3609fe10d94d849631d1ccc062d,
        type: 3}
      propertyPath: m_LocalPosition.z
      value: -0.0044
      objectReference: {fileID: 0}
    - target: {fileID: 4609600150426123904, guid: 045dd3609fe10d94d849631d1ccc062d,
        type: 3}
      propertyPath: m_LocalRotation.w
      value: 0.997065
      objectReference: {fileID: 0}
    - target: {fileID: 4609600150426123904, guid: 045dd3609fe10d94d849631d1ccc062d,
        type: 3}
      propertyPath: m_LocalRotation.x
      value: -0.06938848
      objectReference: {fileID: 0}
    - target: {fileID: 4609600150426123904, guid: 045dd3609fe10d94d849631d1ccc062d,
        type: 3}
      propertyPath: m_LocalRotation.y
      value: 0.017532907
      objectReference: {fileID: 0}
    - target: {fileID: 4609600150426123904, guid: 045dd3609fe10d94d849631d1ccc062d,
        type: 3}
      propertyPath: m_LocalRotation.z
      value: -0.0271904
      objectReference: {fileID: 0}
    - target: {fileID: 4609600150426123904, guid: 045dd3609fe10d94d849631d1ccc062d,
        type: 3}
      propertyPath: m_LocalEulerAnglesHint.x
      value: -7.898
      objectReference: {fileID: 0}
    - target: {fileID: 4609600150426123904, guid: 045dd3609fe10d94d849631d1ccc062d,
        type: 3}
      propertyPath: m_LocalEulerAnglesHint.y
      value: 2.241
      objectReference: {fileID: 0}
    - target: {fileID: 4609600150426123904, guid: 045dd3609fe10d94d849631d1ccc062d,
        type: 3}
      propertyPath: m_LocalEulerAnglesHint.z
      value: -3.279
      objectReference: {fileID: 0}
    m_RemovedComponents: []
    m_AddedGameObjects: []
  m_SourcePrefab: {fileID: 100100000, guid: 045dd3609fe10d94d849631d1ccc062d, type: 3}
--- !u!4 &8240166329326664322 stripped
Transform:
  m_CorrespondingSourceObject: {fileID: 4609600150426123904, guid: 045dd3609fe10d94d849631d1ccc062d,
    type: 3}
  m_PrefabInstance: {fileID: 5594145237231076354}
  m_PrefabAsset: {fileID: 0}
