# ProBuilder 4.5.2
# https://unity3d.com/unity/features/worldbuilding/probuilder
# 10/30/2021 8:35:59 PM

mtllib ./Bone.mtl
o Bone

g Bone
v 0.828598 0.1031072 -0.302969
v 0.7722683 0.1031072 -0.3594642
v 0.5993714 0.1031072 -0.3564095
v 0.5534549 0.1031072 -0.2679396
v 0.4357047 0.1031072 -0.21348
v 0.1484213 0.1031072 -0.1994734
v -0.1714249 0.1031072 -0.1893001
v -0.5074973 0.1031072 -0.1566467
v -0.599606 0.1031072 -0.1630034
v -0.6587148 0.1031072 -0.2196465
v -0.7118602 0.1031073 -0.3085966
v -0.7981625 0.1031073 -0.304389
v -0.9011831 0.1031072 -0.2671199
v -0.9515457 0.1031072 -0.1675167
v -0.8931084 0.1031072 -0.09981966
v -0.839922 0.1031073 -0.02607727
v -0.9498587 0.1031073 0.03952599
v -1.01204 0.1031072 0.1526957
v -0.9598374 0.1031071 0.288929
v -0.8014474 0.1031072 0.3594646
v -0.6082993 0.1031072 0.3108683
v -0.5853963 0.1031073 0.1651154
v -0.3225212 0.1031072 0.1080275
v 0.01132727 0.1031072 0.1027989
v 0.3997335 0.1031072 0.07833576
v 0.536356 0.1031072 0.06615114
v 0.5908861 0.1031072 0.05797052
v 0.6998539 0.1031072 0.196857
v 0.9524064 0.1031072 0.3076072
v 0.985589 0.1031072 0.1829247
v 1.01204 0.1031072 0.03743649
v 0.9708467 0.1031072 -0.02665997
v 0.845974 0.1031072 -0.004071712
v 0.7312975 0.1031072 0.00151968
v 0.7777457 0.1031072 -0.07211781
v 0.8411593 0.1031072 -0.1244297
v -0.9515457 -0.1031072 -0.1675167
v -0.9011831 -0.1031072 -0.2671199
v -0.8931084 -0.1031072 -0.09981966
v -0.7981625 -0.1031071 -0.304389
v -0.7118602 -0.1031071 -0.3085966
v -0.6587148 -0.1031072 -0.2196465
v -0.839922 -0.1031071 -0.02607727
v -0.599606 -0.1031072 -0.1630034
v -1.01204 -0.1031072 0.1526957
v -0.9498587 -0.1031071 0.03952599
v -0.9598374 -0.1031073 0.288929
v -0.8014474 -0.1031072 0.3594646
v -0.5853963 -0.1031071 0.1651154
v -0.6082993 -0.1031072 0.3108683
v -0.5074973 -0.1031072 -0.1566467
v -0.3225212 -0.1031072 0.1080275
v -0.1714249 -0.1031072 -0.1893001
v 0.01132727 -0.1031072 0.1027989
v 0.1484213 -0.1031072 -0.1994734
v 0.3997335 -0.1031072 0.07833576
v 0.4357047 -0.1031072 -0.21348
v 0.536356 -0.1031072 0.06615114
v 0.5908861 -0.1031072 0.05797052
v 0.5534549 -0.1031072 -0.26794
v 0.5993714 -0.1031072 -0.3564095
v 0.7722683 -0.1031072 -0.3594642
v 0.828598 -0.1031072 -0.302969
v 0.7777457 -0.1031072 -0.07211781
v 0.8411593 -0.1031072 -0.1244297
v 0.7312975 -0.1031072 0.00151968
v 0.6998539 -0.1031072 0.196857
v 0.845974 -0.1031072 -0.004071712
v 0.9524064 -0.1031072 0.3076072
v 0.985589 -0.1031072 0.1829247
v 0.9708462 -0.1031072 -0.02665997
v 1.01204 -0.1031072 0.03743649

vt 0.0006699562 -0.01675558
vt 0.1754928 -0.1920915
vt 0.7120895 -0.1826124
vt 0.8545947 0.09195995
vt 1.220041 0.2609797
vt 2.111643 0.3044496
vt 3.104308 0.3360233
vt 4.147331 0.4373655
vt 4.433196 0.4176369
vt 4.616643 0.2418423
vt 4.781584 -0.03422117
vt 5.049429 -0.02116251
vt 5.369159 0.09450483
vt 5.525464 0.4036303
vt 5.3441 0.6137319
vt 5.179032 0.8425961
vt 5.520228 1.046201
vt 5.713212 1.39743
vt 5.551198 1.820238
vt 5.059624 2.03915
vt 4.460175 1.88833
vt 4.389095 1.435975
vt 3.573246 1.258799
vt 2.537124 1.242572
vt 1.33168 1.166649
vt 0.9076629 1.128833
vt 0.7384243 1.103445
vt 0.4002366 1.534487
vt -0.3835769 1.878208
vt -0.4865623 1.491248
vt -0.5686536 1.039715
vt -0.4408069 0.8407874
vt -0.05325747 0.9108915
vt 0.302649 0.9282446
vt 0.1584935 0.6997061
vt -0.03831482 0.5373535
vt -5.525464 0.4036303
vt -5.369159 0.09450483
vt -5.3441 0.6137319
vt -5.049429 -0.02116251
vt -4.781584 -0.03422117
vt -4.616643 0.2418423
vt -5.179032 0.8425961
vt -4.433196 0.4176369
vt -5.713212 1.39743
vt -5.520228 1.046201
vt -5.551198 1.820238
vt -5.059624 2.03915
vt -4.389095 1.435975
vt -4.460175 1.88833
vt -4.147331 0.4373655
vt -3.573246 1.258799
vt -3.104308 0.3360233
vt -2.537124 1.242572
vt -2.111643 0.3044496
vt -1.33168 1.166649
vt -1.220041 0.2609797
vt -0.9076629 1.128833
vt -0.7384243 1.103445
vt -0.8545947 0.09195995
vt -0.7120895 -0.1826124
vt -0.1754928 -0.1920915
vt -0.0006699562 -0.01675558
vt -0.1584935 0.6997061
vt 0.03831482 0.5373535
vt -0.302649 0.9282446
vt -0.4002366 1.534487
vt 0.05325747 0.9108915
vt 0.3835769 1.878208
vt 0.4865623 1.491248
vt 0.4408069 0.8407874
vt 0.5686536 1.039715
vt 2.853465 -9.978293E-08
vt 2.50707 -9.978293E-08
vt 2.853465 0.6399999
vt 2.50707 0.6399999
vt -3.027465 2.705919E-07
vt -3.305018 2.705919E-07
vt -3.027465 0.6400003
vt -3.305018 0.6400003
vt 5.081077 -9.51126E-08
vt 4.741067 3.817246E-07
vt 5.081077 0.6399999
vt 4.741067 0.6400003
vt 5.042408 4.605363E-07
vt 4.774245 4.605363E-07
vt 5.042408 0.6400005
vt 4.774245 0.6400005
vt 2.481855 6.110614E-07
vt 2.160271 1.342242E-07
vt 2.481855 0.6400006
vt 2.160271 0.6400001
vt -2.346191 7.325303E-07
vt -2.628372 2.556932E-07
vt -2.346191 0.6400007
vt -2.628372 0.6400002
vt 3.165922 1.698941E-07
vt 2.911841 1.698941E-07
vt 3.165922 0.6400002
vt 2.911841 0.6400002
vt 3.975942 0
vt 3.575186 4.768372E-07
vt 3.975942 0.64
vt 3.575186 0.6400005
vt -0.2865919 -4.768372E-07
vt -0.7393786 0
vt -0.2865919 0.6399995
vt -0.7393786 0.64
vt -3.79247 0
vt -4.330584 -4.768372E-07
vt -3.79247 0.64
vt -4.330584 0.6399995
vt 5.276473 4.768372E-07
vt 4.879145 4.768372E-07
vt 5.276473 0.6400005
vt 4.879145 0.6400005
vt -2.099883 4.768372E-07
vt -2.557789 0
vt -2.099883 0.6400005
vt -2.557789 0.64
vt -4.786116 0
vt -5.404247 0
vt -4.786116 0.64
vt -5.404247 0.64
vt 4.393921 3.353503E-08
vt 4.107377 3.353503E-08
vt 4.393921 0.64
vt 4.107377 0.64
vt -3.758996 0
vt -4.593863 4.768372E-07
vt -3.758996 0.64
vt -4.593863 0.6400005
vt 4.170188 1.587014E-09
vt 3.122253 1.587014E-09
vt 4.170188 0.64
vt 3.122253 0.64
vt -2.556271 0
vt -3.59252 0
vt -2.556271 0.64
vt -3.59252 0.64
vt 3.113421 1.103824E-08
vt 2.120255 1.103824E-08
vt 3.113421 0.64
vt 2.120255 0.64
vt -1.402381 0
vt -2.610214 0
vt -1.402381 0.64
vt -2.610214 0.64
vt 2.123964 9.360676E-09
vt 1.231302 9.360676E-09
vt 2.123964 0.64
vt 1.231302 0.64
vt -1.004352 0
vt -1.430052 0
vt -1.004352 0.64
vt -1.430052 0.64
vt -0.8939527 0
vt -1.065085 0
vt -0.8939527 0.64
vt -1.065085 0.64
vt 1.216895 -1.163444E-08
vt 0.8142554 -1.163444E-08
vt 1.216895 0.64
vt 0.8142555 0.64
vt 0.7087531 -1.362972E-08
vt 0.1720726 -1.362972E-08
vt 0.7087531 0.64
vt 0.1720726 0.64
vt 0.4752986 -1.920295E-08
vt 0.1659481 -1.920295E-08
vt 0.4752986 0.64
vt 0.1659482 0.64
vt 0.2599382 -3.728317E-10
vt 0.01233837 -3.728316E-10
vt 0.2599382 0.64
vt 0.01233833 0.64
vt 0.01676128 9.935203E-12
vt -0.5387176 9.935243E-12
vt 0.01676124 0.64
vt -0.5387176 0.64
vt -0.3123886 3.80341E-08
vt -0.5675197 3.80341E-08
vt -0.3123886 0.64
vt -0.5675197 0.64
vt -0.6763665 1.659849E-08
vt -0.9465714 1.659849E-08
vt -0.6763665 0.64
vt -0.9465714 0.64
vt 0.9602056 -4.623751E-08
vt 0.4123292 -4.623751E-08
vt 0.9602056 0.6399999
vt 0.4123292 0.6399999
vt 0.347495 8.694256E-08
vt -0.008834312 8.694256E-08
vt 0.3474949 0.64
vt -0.008834324 0.64
vt 1.105583 -2.928685E-08
vt 0.2497165 -2.928685E-08
vt 1.105583 0.64
vt 0.2497166 0.64
vt -1.315947 3.841739E-08
vt -1.716377 3.841739E-08
vt -1.315947 0.64
vt -1.716377 0.64
vt -0.9456325 9.361684E-10
vt -1.1821 9.361683E-10
vt -0.9456325 0.64
vt -1.1821 0.64
vt 0.1097336 8.676839E-08
vt -0.2841054 8.676839E-08
vt 0.1097336 0.64
vt -0.2841054 0.64
vt -0.9212292 0
vt -1.380164 0
vt -0.9212292 0.64
vt -1.380164 0.64

vn 0 1 0
vn 0 -1 0
vn -0.8924076 0 -0.4512301
vn -0.7569795 0 0.6534387
vn -0.3401871 0 -0.9403578
vn -0.0486965 0 -0.9988136
vn 0.8584481 0 -0.5129005
vn -0.8110548 0 0.5849702
vn 0.6918872 0 -0.7220057
vn -0.8764181 0 -0.481551
vn -0.9337921 0 0.357816
vn -0.406813 0 0.9135115
vn -0.5124336 0 -0.8587269
vn 0.9878782 0 0.1552308
vn 0.2439972 0 0.9697759
vn 0.06884941 0 -0.9976271
vn 0.2122207 0 0.9772218
vn -0.09670619 0 -0.995313
vn 0.01565943 0 0.9998774
vn -0.03179084 0 -0.9994946
vn 0.06285892 0 0.9980224
vn 0.08883205 0 0.9960467
vn 0.1483599 0 0.9889334
vn -0.4197813 0 -0.9076253
vn -0.01766453 0 -0.999844
vn -0.8875762 1.065203E-06 -0.4606609
vn 0.7081431 0 -0.7060691
vn 0.9975342 0 -0.07018258
vn 0.6363516 0 0.7713992
vn 0.8457981 0 0.5335031
vn -0.786751 0 0.6172705
vn -0.4016054 0 0.9158128
vn 0.9663622 0 0.2571849
vn 0.8412436 -1.945238E-06 -0.5406564
vn -0.1780022 0 -0.9840301
vn 0.9838715 0 0.1788769

usemtl ProBuilderDefault
f 15/15/1 13/13/1 14/14/1
f 15/15/1 12/12/1 13/13/1
f 10/10/1 11/11/1 12/12/1
f 15/15/1 10/10/1 12/12/1
f 16/16/1 10/10/1 15/15/1
f 16/16/1 9/9/1 10/10/1
f 19/19/1 17/17/1 18/18/1
f 20/20/1 17/17/1 19/19/1
f 20/20/1 16/16/1 17/17/1
f 20/20/1 21/21/1 22/22/1
f 16/16/1 20/20/1 22/22/1
f 9/9/1 16/16/1 22/22/1
f 22/22/1 8/8/1 9/9/1
f 23/23/1 8/8/1 22/22/1
f 23/23/1 7/7/1 8/8/1
f 24/24/1 7/7/1 23/23/1
f 24/24/1 6/6/1 7/7/1
f 25/25/1 6/6/1 24/24/1
f 25/25/1 5/5/1 6/6/1
f 26/26/1 5/5/1 25/25/1
f 26/26/1 27/27/1 5/5/1
f 27/27/1 4/4/1 5/5/1
f 4/4/1 2/2/1 3/3/1
f 1/1/1 2/2/1 4/4/1
f 36/36/1 1/1/1 35/35/1
f 4/4/1 35/35/1 1/1/1
f 34/34/1 35/35/1 4/4/1
f 27/27/1 34/34/1 4/4/1
f 28/28/1 34/34/1 27/27/1
f 34/34/1 28/28/1 33/33/1
f 30/30/1 28/28/1 29/29/1
f 33/33/1 28/28/1 30/30/1
f 33/33/1 31/31/1 32/32/1
f 33/33/1 30/30/1 31/31/1
f 72/72/2 70/70/2 68/68/2
f 71/71/2 72/72/2 68/68/2
f 70/70/2 67/67/2 68/68/2
f 69/69/2 67/67/2 70/70/2
f 68/68/2 67/67/2 66/66/2
f 59/59/2 66/66/2 67/67/2
f 60/60/2 66/66/2 59/59/2
f 60/60/2 64/64/2 66/66/2
f 63/63/2 64/64/2 60/60/2
f 64/64/2 63/63/2 65/65/2
f 60/60/2 62/62/2 63/63/2
f 61/61/2 62/62/2 60/60/2
f 57/57/2 60/60/2 59/59/2
f 57/57/2 59/59/2 58/58/2
f 56/56/2 57/57/2 58/58/2
f 55/55/2 57/57/2 56/56/2
f 54/54/2 55/55/2 56/56/2
f 53/53/2 55/55/2 54/54/2
f 52/52/2 53/53/2 54/54/2
f 51/51/2 53/53/2 52/52/2
f 49/49/2 51/51/2 52/52/2
f 44/44/2 51/51/2 49/49/2
f 49/49/2 43/43/2 44/44/2
f 49/49/2 48/48/2 43/43/2
f 49/49/2 50/50/2 48/48/2
f 46/46/2 43/43/2 48/48/2
f 47/47/2 46/46/2 48/48/2
f 45/45/2 46/46/2 47/47/2
f 42/42/2 44/44/2 43/43/2
f 39/39/2 42/42/2 43/43/2
f 40/40/2 42/42/2 39/39/2
f 40/40/2 41/41/2 42/42/2
f 38/38/2 40/40/2 39/39/2
f 37/37/2 38/38/2 39/39/2
f 13/76/3 38/74/3 37/73/3
f 37/73/3 14/75/3 13/76/3
f 14/80/4 37/78/4 39/77/4
f 39/77/4 15/79/4 14/80/4
f 12/84/5 40/82/5 38/81/5
f 38/81/5 13/83/5 12/84/5
f 11/88/6 41/86/6 40/85/6
f 40/85/6 12/87/6 11/88/6
f 10/92/7 42/90/7 41/89/7
f 41/89/7 11/91/7 10/92/7
f 15/96/8 39/94/8 43/93/8
f 43/93/8 16/95/8 15/96/8
f 9/100/9 44/98/9 42/97/9
f 42/97/9 10/99/9 9/100/9
f 17/104/10 46/102/10 45/101/10
f 45/101/10 18/103/10 17/104/10
f 18/108/11 45/106/11 47/105/11
f 47/105/11 19/107/11 18/108/11
f 19/112/12 47/110/12 48/109/12
f 48/109/12 20/111/12 19/112/12
f 16/116/13 43/114/13 46/113/13
f 46/113/13 17/115/13 16/116/13
f 21/120/14 50/118/14 49/117/14
f 49/117/14 22/119/14 21/120/14
f 20/124/15 48/122/15 50/121/15
f 50/121/15 21/123/15 20/124/15
f 8/128/16 51/126/16 44/125/16
f 44/125/16 9/127/16 8/128/16
f 22/132/17 49/130/17 52/129/17
f 52/129/17 23/131/17 22/132/17
f 7/136/18 53/134/18 51/133/18
f 51/133/18 8/135/18 7/136/18
f 23/140/19 52/138/19 54/137/19
f 54/137/19 24/139/19 23/140/19
f 6/144/20 55/142/20 53/141/20
f 53/141/20 7/143/20 6/144/20
f 24/148/21 54/146/21 56/145/21
f 56/145/21 25/147/21 24/148/21
f 5/152/6 57/150/6 55/149/6
f 55/149/6 6/151/6 5/152/6
f 25/156/22 56/154/22 58/153/22
f 58/153/22 26/155/22 25/156/22
f 26/160/23 58/158/23 59/157/23
f 59/157/23 27/159/23 26/160/23
f 4/164/24 60/162/24 57/161/24
f 57/161/24 5/163/24 4/164/24
f 2/168/25 62/166/25 61/165/25
f 61/165/25 3/167/25 2/168/25
f 3/172/26 61/170/26 60/169/26
f 60/169/26 4/171/26 3/172/26
f 1/176/27 63/174/27 62/173/27
f 62/173/27 2/175/27 1/176/27
f 36/180/28 65/178/28 63/177/28
f 63/177/28 1/179/28 36/180/28
f 35/184/29 64/182/29 65/181/29
f 65/181/29 36/183/29 35/184/29
f 34/188/30 66/186/30 64/185/30
f 64/185/30 35/187/30 34/188/30
f 27/192/31 59/190/31 67/189/31
f 67/189/31 28/191/31 27/192/31
f 33/196/6 68/194/6 66/193/6
f 66/193/6 34/195/6 33/196/6
f 28/200/32 67/198/32 69/197/32
f 69/197/32 29/199/32 28/200/32
f 29/204/33 69/202/33 70/201/33
f 70/201/33 30/203/33 29/204/33
f 31/208/34 72/206/34 71/205/34
f 71/205/34 32/207/34 31/208/34
f 32/212/35 71/210/35 68/209/35
f 68/209/35 33/211/35 32/212/35
f 30/216/36 70/214/36 72/213/36
f 72/213/36 31/215/36 30/216/36

